Using pre-set license
Built from '2020.3/release' branch; Version is '2020.3.12f1 (b3b2c6512326) revision 11776710'; Using compiler version '192528614'; Build Type 'Release'
OS: 'Windows 10 Pro; OS build 19042.746; Version 2009; 64bit' Language: 'ru' Physical Memory: 16321 MB
BatchMode: 1, IsHumanControllingUs: 0, StartBugReporterOnCrash: 0, Is64bit: 1, IsPro: 0

 COMMAND LINE ARGUMENTS:
D:\Unity\2020.3.12f1\Editor\Unity.exe
-adb2
-batchMode
-noUpm
-name
AssetImportWorker41
-projectPath
D:/labV/GitLAb/ShooterFirstPersona/multiplayerproject
-logFile
Logs/AssetImportWorker41.log
-srvPort
50978
Successfully changed project path to: D:/labV/GitLAb/ShooterFirstPersona/multiplayerproject
D:/labV/GitLAb/ShooterFirstPersona/multiplayerproject
Using Asset Import Pipeline V2.
Refreshing native plugins compatible for Editor in 98.61 ms, found 11 plugins.
Preloading 1 native plugins for Editor in 0.82 ms.
Initialize engine version: 2020.3.12f1 (b3b2c6512326)
[Subsystems] Discovering subsystems at path D:/Unity/2020.3.12f1/Editor/Data/Resources/UnitySubsystems
[Subsystems] Discovering subsystems at path D:/labV/GitLAb/ShooterFirstPersona/multiplayerproject/Assets
GfxDevice: creating device client; threaded=0
Direct3D:
    Version:  Direct3D 11.0 [level 11.1]
    Renderer: NVIDIA GeForce GTX 1050 Ti (ID=0x1c82)
    Vendor:   
    VRAM:     4018 MB
    Driver:   27.21.14.6192
Shader 'Oculus/OVRMRCameraFrameLit': fallback shader 'Alpha-Diffuse' not found
Initialize mono
Mono path[0] = 'D:/Unity/2020.3.12f1/Editor/Data/Managed'
Mono path[1] = 'D:/Unity/2020.3.12f1/Editor/Data/MonoBleedingEdge/lib/mono/unityjit'
Mono config path = 'D:/Unity/2020.3.12f1/Editor/Data/MonoBleedingEdge/etc'
Using monoOptions --debugger-agent=transport=dt_socket,embedding=1,server=y,suspend=n,address=127.0.0.1:56136
Begin MonoManager ReloadAssembly
Registering precompiled unity dll's ...
Register platform support module: D:/Unity/2020.3.12f1/Editor/Data/PlaybackEngines/WindowsStandaloneSupport/UnityEditor.WindowsStandalone.Extensions.dll
Registered in 0.001183 seconds.
Native extension for WindowsStandalone target not found
Refreshing native plugins compatible for Editor in 78.76 ms, found 11 plugins.
Preloading 1 native plugins for Editor in 0.04 ms.
Mono: successfully reloaded assembly
- Completed reload, in  2.486 seconds
Platform modules already initialized, skipping
Registering precompiled user dll's ...
Registered in 0.009751 seconds.
Begin MonoManager ReloadAssembly
Native extension for WindowsStandalone target not found
Refreshing native plugins compatible for Editor in 82.19 ms, found 11 plugins.
Preloading 1 native plugins for Editor in 0.04 ms.
[XR] OculusXRPlugin: registering subsystems
[XR] Unable to register display lifecyle provider: [1]
[XR] Oculus Input lifecycle provider registered.
[XR] Unable to register input lifecyle provider: [1]
[XR] OVRP version 1.61.0
Find all reader and writers took 216 milliseconds
Script Module: UnityEngine.UI.dll
Weave behaviours and messages took 142 milliseconds
Find all reader and writers took 186 milliseconds
Script Module: UnityEngine.SpatialTracking.dll
Weave behaviours and messages took 2 milliseconds
Find all reader and writers took 188 milliseconds
Script Module: Oculus.Platform.dll
Weave behaviours and messages took 118 milliseconds
Find all reader and writers took 190 milliseconds
Script Module: UnityEngine.TestRunner.dll
Weave behaviours and messages took 52 milliseconds
Find all reader and writers took 213 milliseconds
Script Module: Unity.InputSystem.dll
Weave behaviours and messages took 405 milliseconds
Find all reader and writers took 175 milliseconds
Script Module: SimpleWebTransport.dll
Weave behaviours and messages took 13 milliseconds
Find all reader and writers took 201 milliseconds
Script Module: Unity.Multiplayer.MLAPI.Runtime.dll
Weave behaviours and messages took 104 milliseconds
Find all reader and writers took 179 milliseconds
Script Module: UnityEngine.XR.LegacyInputHelpers.dll
Weave behaviours and messages took 5 milliseconds
Find all reader and writers took 195 milliseconds
Script Module: Unity.XR.Oculus.dll
Weave behaviours and messages took 11 milliseconds
Find all reader and writers took 205 milliseconds
Script Module: Unity.XR.Interaction.Toolkit.dll
Weave behaviours and messages took 102 milliseconds
Find all reader and writers took 214 milliseconds
Script Module: Unity.TextMeshPro.dll
Weave behaviours and messages took 161 milliseconds
Find all reader and writers took 169 milliseconds
Script Module: Unity.ProBuilder.Poly2Tri.dll
Weave behaviours and messages took 17 milliseconds
Find all reader and writers took 218 milliseconds
Script Module: Unity.Timeline.dll
Weave behaviours and messages took 60 milliseconds
Find all reader and writers took 214 milliseconds
Script Module: Oculus.VR.dll
Weave behaviours and messages took 178 milliseconds
Find all reader and writers took 177 milliseconds
Script Module: Unity.Postprocessing.Runtime.dll
Weave behaviours and messages took 58 milliseconds
Find all reader and writers took 200 milliseconds
Script Module: Unity.ProBuilder.dll
Weave behaviours and messages took 138 milliseconds
Find all reader and writers took 185 milliseconds
Script Module: Unity.XR.OpenXR.dll
Weave behaviours and messages took 29 milliseconds
Find all reader and writers took 181 milliseconds
Script Module: Telepathy.dll
Weave behaviours and messages took 5 milliseconds
Find all reader and writers took 200 milliseconds
Script Module: Unity.ProBuilder.Csg.dll
Weave behaviours and messages took 5 milliseconds
Find all reader and writers took 191 milliseconds
Script Module: Unity.XR.OpenXR.Features.MockDriver.dll
Weave behaviours and messages took 0 milliseconds
Find all reader and writers took 193 milliseconds
Script Module: Unity.XR.Management.dll
Weave behaviours and messages took 4 milliseconds
Find all reader and writers took 189 milliseconds
Script Module: Oculus.LipSync.dll
Weave behaviours and messages took 11 milliseconds
Find all reader and writers took 174 milliseconds
Script Module: kcp2k.dll
Weave behaviours and messages took 11 milliseconds
Find all reader and writers took 182 milliseconds
Script Module: where-allocations.dll
Weave behaviours and messages took 0 milliseconds
Find all reader and writers took 177 milliseconds
Script Module: Unity.ProBuilder.KdTree.dll
Weave behaviours and messages took 7 milliseconds
Find all reader and writers took 215 milliseconds
Script Module: Unity.XR.OpenXR.Features.RuntimeDebugger.dll
Weave behaviours and messages took 1 milliseconds
Find all reader and writers took 217 milliseconds
Script Module: Unity.XR.OpenXR.Features.ConformanceAutomation.dll
Weave behaviours and messages took 0 milliseconds
Find all reader and writers took 195 milliseconds
Script Module: Unity.XR.OpenXR.TestHelpers.dll
Weave behaviours and messages took 0 milliseconds
Find all reader and writers took 194 milliseconds
Script Module: Unity.Multiplayer.MLAPI.Prototyping.dll
Weave behaviours and messages took 7 milliseconds
Find all reader and writers took 182 milliseconds
Script Module: Unity.ProBuilder.Stl.dll
Weave behaviours and messages took 2 milliseconds
Find all reader and writers took 185 milliseconds
Script Module: Unity.XR.OpenXR.Features.MockRuntime.dll
Weave behaviours and messages took 1 milliseconds
Find all reader and writers took 179 milliseconds
Script Module: Unity.Subsystem.Registration.dll
Weave behaviours and messages took 0 milliseconds
Find all reader and writers took 191 milliseconds
Script Module: Unity.XR.OpenXR.Features.OculusQuestSupport.dll
Weave behaviours and messages took 1 milliseconds
Find all reader and writers took 218 milliseconds
Script Module: UnityEditor.TestRunner.dll
Weave behaviours and messages took 82 milliseconds
Find all reader and writers took 211 milliseconds
Script Module: projectCloner.dll
Weave behaviours and messages took 4 milliseconds
Find all reader and writers took 214 milliseconds
Script Module: Unity.ProBuilder.AssetIdRemapUtility.dll
Weave behaviours and messages took 8 milliseconds
Find all reader and writers took 181 milliseconds
Script Module: Mirror.CompilerSymbols.dll
Weave behaviours and messages took 0 milliseconds
Find all reader and writers took 214 milliseconds
Script Module: UnityEditor.UI.dll
Weave behaviours and messages took 24 milliseconds
Find all reader and writers took 211 milliseconds
Script Module: UnityEditor.SpatialTracking.dll
Weave behaviours and messages took 0 milliseconds
